{
  "project_info": {
    "project_number": "215194259298",
    "project_id": "harsa-da163",
    "storage_bucket": "harsa-da163.appspot.com"
  },
  "client": [
    {
      "client_info": {
        "mobilesdk_app_id": "1:215194259298:android:a1675613ccd8f2cd3b263b",
        "android_client_info": {
          "package_name": "com.smartersvision.markets"
        }
      },
      "oauth_client": [
        {
          "client_id": "215194259298-bi02avf498mccru87brmv4p7u36hffbf.apps.googleusercontent.com",
          "client_type": 3
        }
      ],
      "api_key": [
        {
          "current_key": "AIzaSyC6FmPWcHXa9sREZXqxko4L7ZMQW6Gub90"
        }
      ],
      "services": {
        "appinvite_service": {
          "other_platform_oauth_client": [
            {
              "client_id": "215194259298-bi02avf498mccru87brmv4p7u36hffbf.apps.googleusercontent.com",
              "client_type": 3
            }
          ]
        }
      }
    }
  ],
  "configuration_version": "1"
}